交易日,合约代码,最新价,数量,成交金额,持仓量,最高价,最低价,最后修改时间,最后修改毫秒,申买价一,申买量一,申卖价一,申卖量一,当日均价
20141107,SR503,4546,0,0,194,0,0,09:54:56,0,4567,5,4588,1,0
20141107,SR411,4150,0,0,646,0,0,09:42:40,0,3997,5,4190,5,0
20141107,a1411,4515,0,0,0,1.79769e+308,1.79769e+308,19:04:35,0,1.79769e+308,0,1.79769e+308,0,0
20141107,MA506,2594,10502,2.73158e+007,29628,2624,2585,09:54:55,0,2594,1,2595,11,2599
20141107,au1506,224.9,87156,1.96548e+010,192254,226.5,224.4,09:54:57,0,224.85,34,224.9,116,225513
20141107,SR501,4529,224916,1.01403e+009,554556,4538,4480,09:54:59,0,4529,46,4530,38,4519
20141107,a1503,4463,0,0,38,1.79769e+308,1.79769e+308,09:50:36,0,4396,1,4471,2,0
20141107,cu1411,47970,2860,6.85728e+008,38460,48010,47700,09:54:12,500,47970,30,47990,10,239765
20141107,pb1411,13335,40,2.666e+006,6230,13335,13325,09:54:30,500,13305,5,13350,20,66650
20141107,ru1411,11100,218,2.41264e+007,5316,11110,11020,09:54:50,0,11100,6,11110,10,110672
20141107,ag1411,3323,0,0,356,1.79769e+308,1.79769e+308,09:53:12,0,3301,2,3350,4,0
20141107,FG411,1131,0,0,4,0,0,09:00:24,0,1085,2,0,0,0
20141107,RM411,2353,0,0,7614,0,0,08:59:00,0,0,0,2330,24,0
20141107,RS411,4650,0,0,0,0,0,07:31:00,0,0,0,0,0,0
20141107,c1411,2210,0,0,0,1.79769e+308,1.79769e+308,19:04:35,0,1.79769e+308,0,1.79769e+308,0,0
20141107,l1411,10535,0,0,0,1.79769e+308,1.79769e+308,19:04:35,0,1.79769e+308,0,1.79769e+308,0,0
20141107,p1411,5266,0,0,0,1.79769e+308,1.79769e+308,19:04:35,0,1.79769e+308,0,1.79769e+308,0,0
20141107,fu1412,2968,0,0,4,1.79769e+308,1.79769e+308,09:09:16,0,1.79769e+308,0,2968,2,0
20141107,TC412,518.4,0,0,0,0,0,09:49:59,0,0,0,505.6,1,0
20141107,bb1411,118.5,0,0,164,1.79769e+308,1.79769e+308,09:41:04,0,118,1,120,1,0
20141107,bu1412,4034,12,483000,330,4034,4020,09:54:41,500,4020,1,4078,1,40250
